【63%】个人感悟：来中农烟院的第一学期 - 自留地 - 记录学习生活的大小事
…
"""
获取所有小组成员的信息（以一个新的 DataFrame 的形式返回）

julia>g25 = fetchgroup(groups, 25)
7×4 DataFrame
 Row │ GroupID  Name      ID             Class     
     │ Int64    String31  Int64          String15?
─────┼─────────────────────────────────────────────
   1 │      25  ＸＭＴ    20225054*****  missing
   2 │      25  ＪＮ      20225054*****  missing
 ... │    ⋮        ⋮            ⋮            ⋮
   7 │      25  ＧＥＳ    20235055*****  missing
                                  4 rows omitted
…
